affc64ab8006c918da41eb1d09bd9928bde20d9e7684e66f5837b362b2654cc2 *k0sctl-linux-x64
3d9d4c162b9b479a85bb699f12cfbd73683923666986f7ef3d369cd4a990da53 *k0sctl-linux-arm64
08080e8d72ca4298d816f2c7cedb870287f42c44b82129abbacb404476721259 *k0sctl-linux-arm
a86286d17824e5b798448d51f5e8564c95292014343870b06a0ed14368ecf876 *k0sctl-win-x64.exe
c097314c14b83ff65ec4311d96102e42d576d7f978fe7a1569e8709c36512fc4 *k0sctl-darwin-x64
b7ed7b23c4425aac8cd469636a26b20d7b99b7e7aeb706fac2acd1fbd5aceeb0 *k0sctl-darwin-arm64
