83305dc4711ba3051776e1674cfa2292ffa44f875f5556f4de9b377a59486bcd *k0sctl-linux-x64
303e15c7dbb4720e1ea5a05e46b35a86af76b816dddc1cf62736fb6d6c76a47c *k0sctl-linux-arm64
daba8df2221975a0cf65f908ebf5505a725b62901b628ee94da2342be61f330e *k0sctl-linux-arm
fb22439a72f1a5e253a8ee20b71613a39064af66ebf4184fd6d81c696847071c *k0sctl-win-x64.exe
c1afecca903a194201efb110f171c3cfd6e496e61df40570035c9a81e579ddb6 *k0sctl-darwin-x64
6cf6d6b142c70dc51739e3c7d2ac4f03fdbe06e7d81a68c1435363fbe5aa320e *k0sctl-darwin-arm64
